{
  "Comment": "This is a configuration file for TelePort", 
  "Configname": "Default Configuration",  
  "Author": "Mikael Holber 2016",
  "AppName": "TelePort",
  "ConfigVersion": "0.1",
  "AppLogging": "False",
  "LogPath": ""
}